module gitlab.com/megafon-libraries/oracle

go 1.14

require (
	bou.ke/monkey v1.0.2
	github.com/godror/godror v0.20.2
	github.com/stretchr/testify v1.6.1
	gitlab.com/megafon-libraries/database v1.3.0
	gitlab.com/megafon-libraries/kv v1.0.0
)
